age,population
Topic0,9
Topic1,7
Topic2,12
Topic3,10
Topic4,8
Topic5,6
Topic6,9
Topic7,11
Topic8,20
Topic9,12
Topic10,4
Topic11,8
Topic12,4
Topic13,13
Topic14,14
Topic15,7
Topic16,15
Topic17,8
Topic18,8
Topic19,11
