age,population
Topic0,0
Topic1,2
Topic2,2
Topic3,0
Topic4,2
Topic5,3
Topic6,0
Topic7,2
Topic8,1
Topic9,2
Topic10,0
Topic11,1
Topic12,1
Topic13,3
Topic14,3
Topic15,1
Topic16,0
Topic17,1
Topic18,3
Topic19,0
